Predicting Condominium Sale Prices
…
          How well does gross square feet explain sale price for all records
          combined?

          Next we’ll take a look at the highest sale price observations in
          Brooklyn. There are a number of sale records at a sale price of around
          $30 Million, but there is only a single observations in the range of
          $10 to $30 Million. Could this be correct?

NYC_condos %>% 
  filter(borough == "Brooklyn") %>% 
  arrange(desc(sale_price))

## # A tibble: 1,751 × 20
##    borough  neighb…¹ build…² tax_c…³ block   lot build…⁴ address apart…⁵ zip_c…⁶
##    <chr>    <chr>    <chr>   <chr>   <dbl> <dbl> <chr>   <chr>   <chr>     <dbl>
##  1 Brooklyn Gowanus  13 Con… 2        1046  1001 R4      554 4 … 3A        11215
##  2 Brooklyn Gowanus  13 Con… 2        1046  1002 R4      554 4 … 3B        11215
##  3 Brooklyn Gowanus  13 Con… 2        1046  1003 R4      554 4 … 3C        11215
##  4 Brooklyn Gowanus  13 Con… 2        1046  1004 R4      554 4 … 3D        11215
##  5 Brooklyn Gowanus  13 Con… 2        1046  1005 R4      554 4 … 3E        11215
##  6 Brooklyn Gowanus  13 Con… 2        1046  1006 R4      554 4 … 4A        11215
##  7 Brooklyn Gowanus  13 Con… 2        1046  1007 R4      554 4 … 4B        11215
##  8 Brooklyn Gowanus  13 Con… 2        1046  1008 R4      554 4 … 4C        11215
##  9 Brooklyn Gowanus  13 Con… 2        1046  1009 R4      554 4 … 4D        11215
## 10 Brooklyn Gowanus  13 Con… 2        1046  1010 R4      554 4 … 4E        11215
## # … with 1,741 more rows, 10 more variables: residential_units <dbl>,
## #   commercial_units <dbl>, total_units <dbl>, land_square_feet <dbl>,
## #   gross_square_feet <dbl>, year_built <dbl>, tax_class_at_time_of_sale <dbl>,
## #   building_class_at_time_of_sale <chr>, sale_price <dbl>, sale_date <dttm>,
## #   and abbreviated variable names ¹​neighborhood, ²​building_class_category,
## #   ³​tax_class_at_present, ⁴​building_class_at_present, ⁵​apartment_number,
## #   ⁶​zip_code
…
